Name	ID	Longitude	Latitude
Old Japanese	oldj1239	135.8	34.683333
Japanese	nucl1643	135	35
Yilan Creole Japanese	yila1234	121.574283	24.381274
Miyako	miya1259	125.363	24.7564
Yaeyama	yaey1239	123.801	24.3401
Yonaguni	yona1241	122.991	24.45
Kikai	kika1239	129.982	28.31
Yoron	yoro1243	128.428	27.0407
Kunigami	kuni1268	128.068	26.5911
Central Okinawan	cent2126	127.7816	26.14854
Irabu-Jima	irab1238	125.18956	24.831088
Ogami	ogam1239	125.307663	24.915887
Southern Amami-Oshima	sout2954	129.285	28.1955
Northern Amami-Oshima	nort2935	129.453	28.2099
Toku-No-Shima	toku1246	128.961	27.7736
Oki-No-Erabu	okin1246	128.619	27.3738
Hachijo	hach1239	139.791389	33.109444
